AMS_progetto/05_systemc_ams/BASK/tr.vcd
$date
    Tue Dec 18 09:03:42 2018
$end

$version
    2.1
$end

$timescale
      1 fs
$end

$scope module SystemC_AMS $end

$var wire 1 !  in_bits $end
$var real 1 "  wave $end
$var wire 1 #  out_bits $end

$upscope $end

$enddefinitions $end


#0
1!
r0.000000000000000 "
0#

#5000000
r0.000000000000000 "

#10000000
r0.000000000000000 "

#15000000
r0.000000000000000 "

#20000000
r0.000000000000000 "

#25000000
r0.000000000000000 "

#30000000
r0.000000000000000 "

#35000000
r0.000000000000000 "

#40000000
r0.000000000000000 "

#45000000
r0.000000000000000 "

#50000000
r0.000000000000000 "

#55000000
r0.000000000000000 "

#60000000
r0.000000000000000 "

#65000000
r0.000000000000000 "

#70000000
r0.000000000000000 "

#75000000
r0.000000000000000 "

#80000000
r0.000000000000000 "

#85000000
r0.000000000000000 "

#90000000
r0.000000000000000 "

#95000000
r0.000000000000000 "

#100000000
r0.000000000000000 "

#105000000
r0.000000000000000 "

#110000000
r0.000000000000000 "

#115000000
r0.000000000000000 "

#120000000
r0.000000000000000 "

#125000000
r0.000000000000000 "

#130000000
r0.000000000000000 "

#135000000
r0.000000000000000 "

#140000000
r0.000000000000000 "

#145000000
r0.000000000000000 "

#150000000
r0.000000000000000 "

#155000000
r0.000000000000000 "

#160000000
r0.000000000000000 "

#165000000
r0.000000000000000 "

#170000000
r0.000000000000000 "

#175000000
r0.000000000000000 "

#180000000
r0.000000000000000 "

#185000000
r0.000000000000000 "

#190000000
r0.000000000000000 "

#195000000
r0.000000000000000 "

#200000000
0!
r0.000000000000000 "
0#

#205000000
r0.000000000000000 "

#210000000
r0.000000000000000 "

#215000000
r0.000000000000000 "

#220000000
r0.000000000000000 "

#225000000
r0.000000000000000 "

#230000000
r0.000000000000000 "

#235000000
r0.000000000000000 "

#240000000
r0.000000000000000 "

#245000000
r0.000000000000000 "

#250000000
r0.000000000000000 "

#255000000
r0.000000000000000 "

#260000000
r0.000000000000000 "

#265000000
r0.000000000000000 "

#270000000
r0.000000000000000 "

#275000000
r0.000000000000000 "

#280000000
r0.000000000000000 "

#285000000
r0.000000000000000 "

#290000000
r0.000000000000000 "

#295000000
r0.000000000000000 "

#300000000
r0.000000000000000 "

#305000000
r0.000000000000000 "

#310000000
r0.000000000000000 "

#315000000
r0.000000000000000 "

#320000000
r0.000000000000000 "

#325000000
r0.000000000000000 "

#330000000
r0.000000000000000 "

#335000000
r0.000000000000000 "

#340000000
r0.000000000000000 "

#345000000
r0.000000000000000 "

#350000000
r0.000000000000000 "

#355000000
r0.000000000000000 "

#360000000
r0.000000000000000 "

#365000000
r0.000000000000000 "

#370000000
r0.000000000000000 "

#375000000
r0.000000000000000 "

#380000000
r0.000000000000000 "

#385000000
r0.000000000000000 "

#390000000
r0.000000000000000 "

#395000000
r0.000000000000000 "

#400000000
1!
r0.000000000000000 "
0#

#405000000
r0.000000000000000 "

#410000000
r0.000000000000000 "

#415000000
r0.000000000000000 "

#420000000
r0.000000000000000 "

#425000000
r0.000000000000000 "

#430000000
r0.000000000000000 "

#435000000
r0.000000000000000 "

#440000000
r0.000000000000000 "

#445000000
r0.000000000000000 "

#450000000
r0.000000000000000 "

#455000000
r0.000000000000000 "

#460000000
r0.000000000000000 "

#465000000
r0.000000000000000 "

#470000000
r0.000000000000000 "

#475000000
r0.000000000000000 "

#480000000
r0.000000000000000 "

#485000000
r0.000000000000000 "

#490000000
r0.000000000000000 "

#495000000
r0.000000000000000 "

#500000000
r0.000000000000000 "

#505000000
r0.000000000000000 "

#510000000
r0.000000000000000 "

#515000000
r0.000000000000000 "

#520000000
r0.000000000000000 "

#525000000
r0.000000000000000 "

#530000000
r0.000000000000000 "

#535000000
r0.000000000000000 "

#540000000
r0.000000000000000 "

#545000000
r0.000000000000000 "

#550000000
r0.000000000000000 "

#555000000
r0.000000000000000 "

#560000000
r0.000000000000000 "

#565000000
r0.000000000000000 "

#570000000
r0.000000000000000 "

#575000000
r0.000000000000000 "

#580000000
r0.000000000000000 "

#585000000
r0.000000000000000 "

#590000000
r0.000000000000000 "

#595000000
r0.000000000000000 "

#600000000
1!
r0.000000000000000 "
0#

#605000000
r0.000000000000000 "

#610000000
r0.000000000000000 "

#615000000
r0.000000000000000 "

#620000000
r0.000000000000000 "

#625000000
r0.000000000000000 "

#630000000
r0.000000000000000 "

#635000000
r0.000000000000000 "

#640000000
r0.000000000000000 "

#645000000
r0.000000000000000 "

#650000000
r0.000000000000000 "

#655000000
r0.000000000000000 "

#660000000
r0.000000000000000 "

#665000000
r0.000000000000000 "

#670000000
r0.000000000000000 "

#675000000
r0.000000000000000 "

#680000000
r0.000000000000000 "

#685000000
r0.000000000000000 "

#690000000
r0.000000000000000 "

#695000000
r0.000000000000000 "

#700000000
r0.000000000000000 "

#705000000
r0.000000000000000 "

#710000000
r0.000000000000000 "

#715000000
r0.000000000000000 "

#720000000
r0.000000000000000 "

#725000000
r0.000000000000000 "

#730000000
r0.000000000000000 "

#735000000
r0.000000000000000 "

#740000000
r0.000000000000000 "

#745000000
r0.000000000000000 "

#750000000
r0.000000000000000 "

#755000000
r0.000000000000000 "

#760000000
r0.000000000000000 "

#765000000
r0.000000000000000 "

#770000000
r0.000000000000000 "

#775000000
r0.000000000000000 "

#780000000
r0.000000000000000 "

#785000000
r0.000000000000000 "

#790000000
r0.000000000000000 "

#795000000
r0.000000000000000 "

#800000000
1!
r0.000000000000000 "
0#

#805000000
r0.000000000000000 "

#810000000
r0.000000000000000 "

#815000000
r0.000000000000000 "

#820000000
r0.000000000000000 "

#825000000
r0.000000000000000 "

#830000000
r0.000000000000000 "

#835000000
r0.000000000000000 "

#840000000
r0.000000000000000 "

#845000000
r0.000000000000000 "

#850000000
r0.000000000000000 "

#855000000
r0.000000000000000 "

#860000000
r0.000000000000000 "

#865000000
r0.000000000000000 "

#870000000
r0.000000000000000 "

#875000000
r0.000000000000000 "

#880000000
r0.000000000000000 "

#885000000
r0.000000000000000 "

#890000000
r0.000000000000000 "

#895000000
r0.000000000000000 "

#900000000
r0.000000000000000 "

#905000000
r0.000000000000000 "

#910000000
r0.000000000000000 "

#915000000
r0.000000000000000 "

#920000000
r0.000000000000000 "

#925000000
r0.000000000000000 "

#930000000
r0.000000000000000 "

#935000000
r0.000000000000000 "

#940000000
r0.000000000000000 "

#945000000
r0.000000000000000 "

#950000000
r0.000000000000000 "

#955000000
r0.000000000000000 "

#960000000
r0.000000000000000 "

#965000000
r0.000000000000000 "

#970000000
r0.000000000000000 "

#975000000
r0.000000000000000 "

#980000000
r0.000000000000000 "

#985000000
r0.000000000000000 "

#990000000
r0.000000000000000 "

#995000000
r0.000000000000000 "


