AMS_progetto/05_systemc_ams/UserGuideBasedExercises/traces/trace_example.vcd
$date
    Tue Nov 18 18:28:24 2014
$end

$version
    2.0.beta1
$end

$timescale
      1 fs
$end

$scope module SystemC_AMS $end

$var wire 1 !  in_bits $end
$var real 1 "  wave_1 $end
$var real 1 #  wave_2 $end
$var real 1 $  wave_3 $end

$upscope $end

$enddefinitions $end


#0
1!
r0.000000000000000 "
r0.000000000000000 #
r-0.000000000000000 $

#25000000
r1.570796320335256e-07 "
r1.570796320335256e-07 #
r-1.570796359605164e-07 $

#50000000
r3.141592601912665e-07 "
r3.141592601912665e-07 #
r-3.141592700087438e-07 $

#75000000
r4.712388805974386e-07 "
r4.712388805974386e-07 #
r-4.712389002323929e-07 $

#100000000
r6.283184893762571e-07 "
r6.283184893762571e-07 #
r-6.283185227556792e-07 $

#125000000
r7.853980826519387e-07 "
r7.853980826519387e-07 #
r-7.853981337028191e-07 $

#150000000
r9.424776565486992e-07 "
r9.424776565486992e-07 #
r-9.424777291980278e-07 $

#175000000
r1.099557207190756e-06 "
r1.099557207190756e-06 #
r-1.099557305365522e-06 $

#200000000
r1.256636730702325e-06 "
r1.256636730702325e-06 #
r-1.256636858329519e-06 $

#225000000
r1.413716223207627e-06 "
r1.413716223207627e-06 #
r-1.413716384214236e-06 $

#250000000
r1.570795680830879e-06 "
r1.570795680830879e-06 #
r-1.570795879143891e-06 $

#275000000
r1.727875099696301e-06 "
r1.727875099696301e-06 #
r-1.727875339242703e-06 $

#300000000
r1.884954475928114e-06 "
r1.884954475928114e-06 #
r-1.884954760634893e-06 $

#325000000
r2.042033805650539e-06 "
r2.042033805650539e-06 #
r-2.042034139444680e-06 $

#350000000
r2.199113084987800e-06 "
r2.199113084987800e-06 #
r-2.199113471796286e-06 $

#375000000
r2.356192310064121e-06 "
r2.356192310064121e-06 #
r-2.356192753813934e-06 $

#400000000
r2.513271477003726e-06 "
r2.513271477003726e-06 #
r-2.513271981621849e-06 $

#425000000
r2.670350581930844e-06 "
r2.670350581930844e-06 #
r-2.670351151344256e-06 $

#450000000
r2.827429620969703e-06 "
r2.827429620969703e-06 #
r-2.827430259105382e-06 $

#475000000
r2.984508590244532e-06 "
r2.984508590244532e-06 #
r-2.984509301029456e-06 $

#500000000
r3.141587485879564e-06 "
r3.141587485879564e-06 #
r-3.141588273240707e-06 $

#525000000
r3.298666303999031e-06 "
r3.298666303999031e-06 #
r-3.298667171863367e-06 $

#550000000
r3.455745040727169e-06 "
r3.455745040727169e-06 #
r-3.455745993021670e-06 $

#575000000
r3.612823692188217e-06 "
r3.612823692188217e-06 #
r-3.612824732839852e-06 $

#600000000
r3.769902254506414e-06 "
r3.769902254506414e-06 #
r-3.769903387442151e-06 $

#625000000
r3.926980723806000e-06 "
r3.926980723806000e-06 #
r-3.926981952952803e-06 $

#650000000
r4.084059096211222e-06 "
r4.084059096211222e-06 #
r-4.084060425496055e-06 $

#675000000
r4.241137367846324e-06 "
r4.241137367846324e-06 #
r-4.241138801196148e-06 $

#700000000
r4.398215534835558e-06 "
r4.398215534835558e-06 #
r-4.398217076177330e-06 $

#725000000
r4.555293593303172e-06 "
r4.555293593303172e-06 #
r-4.555295246563848e-06 $

#750000000
r4.712371539373422e-06 "
r4.712371539373422e-06 #
r-4.712373308479954e-06 $

#775000000
r4.869449369170566e-06 "
r4.869449369170566e-06 #
r-4.869451258049906e-06 $

#800000000
r5.026527078818863e-06 "
r5.026527078818863e-06 #
r-5.026529091397957e-06 $

#825000000
r5.183604664442574e-06 "
r5.183604664442574e-06 #
r-5.183606804648368e-06 $

#850000000
r5.340682122165969e-06 "
r5.340682122165969e-06 #
r-5.340684393925402e-06 $

#875000000
r5.497759448113315e-06 "
r5.497759448113315e-06 #
r-5.497761855353326e-06 $

#900000000
r5.654836638408881e-06 "
r5.654836638408881e-06 #
r-5.654839185056405e-06 $

#925000000
r5.811913689176949e-06 "
r5.811913689176949e-06 #
r-5.811916379158917e-06 $

#950000000
r5.968990596541794e-06 "
r5.968990596541794e-06 #
r-5.968993433785135e-06 $

#975000000
r6.126067356627698e-06 "
r6.126067356627698e-06 #
r-6.126070345059336e-06 $

#1000000000
0!
r6.283143965558951e-06 "
r0.000000000000000 #
r-3.065007556078434e-12 $

#1025000000
r6.440220419459841e-06 "
r0.000000000000000 #
r-3.065007632703623e-12 $

#1050000000
r6.597296714454661e-06 "
r0.000000000000000 #
r-3.065007709328814e-12 $

#1075000000
r6.754372846667710e-06 "
r0.000000000000000 #
r-3.065007785954007e-12 $

#1100000000
r6.911448812223289e-06 "
r0.000000000000000 #
r-3.065007862579202e-12 $

#1125000000
r7.068524607245705e-06 "
r0.000000000000000 #
r-3.065007939204400e-12 $

#1150000000
r7.225600227859266e-06 "
r0.000000000000000 #
r-3.065008015829599e-12 $

#1175000000
r7.382675670188290e-06 "
r0.000000000000000 #
r-3.065008092454800e-12 $

#1200000000
r7.539750930357092e-06 "
r0.000000000000000 #
r-3.065008169080002e-12 $

#1225000000
r7.696826004489998e-06 "
r0.000000000000000 #
r-3.065008245705207e-12 $

#1250000000
r7.853900888711335e-06 "
r0.000000000000000 #
r-3.065008322330413e-12 $

#1275000000
r8.010975579145435e-06 "
r0.000000000000000 #
r-3.065008398955621e-12 $

#1300000000
r8.168050071916635e-06 "
r0.000000000000000 #
r-3.065008475580832e-12 $

#1325000000
r8.325124363149276e-06 "
r0.000000000000000 #
r-3.065008552206045e-12 $

#1350000000
r8.482198448967712e-06 "
r0.000000000000000 #
r-3.065008628831259e-12 $

#1375000000
r8.639272325496290e-06 "
r0.000000000000000 #
r-3.065008705456476e-12 $

#1400000000
r8.796345988859365e-06 "
r0.000000000000000 #
r-3.065008782081695e-12 $

#1425000000
r8.953419435181305e-06 "
r0.000000000000000 #
r-3.065008858706915e-12 $

#1450000000
r9.110492660586474e-06 "
r0.000000000000000 #
r-3.065008935332137e-12 $

#1475000000
r9.267565661199248e-06 "
r0.000000000000000 #
r-3.065009011957361e-12 $

#1500000000
r9.424638433144006e-06 "
r0.000000000000000 #
r-3.065009088582586e-12 $

#1525000000
r9.581710972545133e-06 "
r0.000000000000000 #
r-3.065009165207814e-12 $

#1550000000
r9.738783275527017e-06 "
r0.000000000000000 #
r-3.065009241833044e-12 $

#1575000000
r9.895855338214055e-06 "
r0.000000000000000 #
r-3.065009318458276e-12 $

#1600000000
r1.005292715673065e-05 "
r0.000000000000000 #
r-3.065009395083510e-12 $

#1625000000
r1.020999872720121e-05 "
r0.000000000000000 #
r-3.065009471708745e-12 $

#1650000000
r1.036707004575015e-05 "
r0.000000000000000 #
r-3.065009548333984e-12 $

#1675000000
r1.052414110850190e-05 "
r0.000000000000000 #
r-3.065009624959223e-12 $

#1700000000
r1.068121191158086e-05 "
r0.000000000000000 #
r-3.065009701584464e-12 $

#1725000000
r1.083828245111150e-05 "
r0.000000000000000 #
r-3.065009778209707e-12 $

#1750000000
r1.099535272321822e-05 "
r0.000000000000000 #
r-3.065009854834951e-12 $

#1775000000
r1.115242272402550e-05 "
r0.000000000000000 #
r-3.065009931460200e-12 $

#1800000000
r1.130949244965777e-05 "
r0.000000000000000 #
r-3.065010008085450e-12 $

#1825000000
r1.146656189623950e-05 "
r0.000000000000000 #
r-3.065010084710701e-12 $

#1850000000
r1.162363105989517e-05 "
r0.000000000000000 #
r-3.065010161335954e-12 $

#1875000000
r1.178069993674923e-05 "
r0.000000000000000 #
r-3.065010237961208e-12 $

#1900000000
r1.193776852292617e-05 "
r0.000000000000000 #
r-3.065010314586465e-12 $

#1925000000
r1.209483681455048e-05 "
r0.000000000000000 #
r-3.065010391211725e-12 $

#1950000000
r1.225190480774665e-05 "
r0.000000000000000 #
r-3.065010467836985e-12 $

#1975000000
r1.240897249863919e-05 "
r0.000000000000000 #
r-3.065010544462247e-12 $

#2000000000
1!
r1.256603988335261e-05 "
r1.256603988335261e-05 #
r-1.256604310543873e-05 $

#2025000000
r1.272310695801142e-05 "
r1.272310695801142e-05 #
r-1.272311049621196e-05 $

#2050000000
r1.288017371874015e-05 "
r1.288017371874015e-05 #
r-1.288017757698179e-05 $

#2075000000
r1.303724016166333e-05 "
r1.303724016166333e-05 #
r-1.303724434387275e-05 $

#2100000000
r1.319430628290551e-05 "
r1.319430628290551e-05 #
r-1.319431079300937e-05 $

#2125000000
r1.335137207859123e-05 "
r1.335137207859123e-05 #
r-1.335137692051618e-05 $

#2150000000
r1.350843754484505e-05 "
r1.350843754484505e-05 #
r-1.350844272251775e-05 $

#2175000000
r1.366550267779153e-05 "
r1.366550267779153e-05 #
r-1.366550819513862e-05 $

#2200000000
r1.382256747355525e-05 "
r1.382256747355525e-05 #
r-1.382257333450335e-05 $

#2225000000
r1.397963192826079e-05 "
r1.397963192826079e-05 #
r-1.397963813673653e-05 $

#2250000000
r1.413669603803273e-05 "
r1.413669603803273e-05 #
r-1.413670259796274e-05 $

#2275000000
r1.429375979899569e-05 "
r1.429375979899569e-05 #
r-1.429376671430656e-05 $

#2300000000
r1.445082320727425e-05 "
r1.445082320727425e-05 #
r-1.445083048189259e-05 $

#2325000000
r1.460788625899306e-05 "
r1.460788625899306e-05 #
r-1.460789389684545e-05 $

#2350000000
r1.476494895027671e-05 "
r1.476494895027671e-05 #
r-1.476495695528974e-05 $

#2375000000
r1.492201127724985e-05 "
r1.492201127724985e-05 #
r-1.492201965335008e-05 $

#2400000000
r1.507907323603712e-05 "
r1.507907323603712e-05 #
r-1.507908198715113e-05 $

#2425000000
r1.523613482276317e-05 "
r1.523613482276317e-05 #
r-1.523614395281750e-05 $

#2450000000
r1.539319603355267e-05 "
r1.539319603355267e-05 #
r-1.539320554647387e-05 $

#2475000000
r1.555025686453028e-05 "
r1.555025686453028e-05 #
r-1.555026676424487e-05 $

#2500000000
r1.570731731182068e-05 "
r1.570731731182068e-05 #
r-1.570732760225521e-05 $

#2525000000
r1.586437737154856e-05 "
r1.586437737154856e-05 #
r-1.586438805662954e-05 $

#2550000000
r1.602143703983862e-05 "
r1.602143703983862e-05 #
r-1.602144812349255e-05 $

#2575000000
r1.617849631281556e-05 "
r1.617849631281556e-05 #
r-1.617850779896894e-05 $

#2600000000
r1.633555518660411e-05 "
r1.633555518660411e-05 #
r-1.633556707918343e-05 $

#2625000000
r1.649261365732900e-05 "
r1.649261365732900e-05 #
r-1.649262596026072e-05 $

#2650000000
r1.664967172111495e-05 "
r1.664967172111495e-05 #
r-1.664968443832555e-05 $

#2675000000
r1.680672937408672e-05 "
r1.680672937408672e-05 #
r-1.680674250950267e-05 $

#2700000000
r1.696378661236907e-05 "
r1.696378661236907e-05 #
r-1.696380016991680e-05 $

#2725000000
r1.712084343208675e-05 "
r1.712084343208675e-05 #
r-1.712085741569270e-05 $

#2750000000
r1.727789982936457e-05 "
r1.727789982936457e-05 #
r-1.727791424295516e-05 $

#2775000000
r1.743495580032729e-05 "
r1.743495580032729e-05 #
r-1.743497064782894e-05 $

#2800000000
r1.759201134109972e-05 "
r1.759201134109972e-05 #
r-1.759202662643885e-05 $

#2825000000
r1.774906644780667e-05 "
r1.774906644780667e-05 #
r-1.774908217490965e-05 $

#2850000000
r1.790612111657297e-05 "
r1.790612111657297e-05 #
r-1.790613728936619e-05 $

#2875000000
r1.806317534352343e-05 "
r1.806317534352343e-05 #
r-1.806319196593326e-05 $

#2900000000
r1.822022912478290e-05 "
r1.822022912478290e-05 #
r-1.822024620073572e-05 $

#2925000000
r1.837728245647625e-05 "
r1.837728245647625e-05 #
r-1.837729998989839e-05 $

#2950000000
r1.853433533472832e-05 "
r1.853433533472832e-05 #
r-1.853435332954613e-05 $

#2975000000
r1.869138775566400e-05 "
r1.869138775566400e-05 #
r-1.869140621580381e-05 $

#3000000000
1!
r1.884843971540818e-05 "
r1.884843971540818e-05 #
r-1.884845864479629e-05 $

#3025000000
r1.900549121008574e-05 "
r1.900549121008574e-05 #
r-1.900551061264848e-05 $

#3050000000
r1.916254223582161e-05 "
r1.916254223582161e-05 #
r-1.916256211548525e-05 $

#3075000000
r1.931959278874070e-05 "
r1.931959278874070e-05 #
r-1.931961314943154e-05 $

#3100000000
r1.947664286496796e-05 "
r1.947664286496796e-05 #
r-1.947666371061225e-05 $

#3125000000
r1.963369246062830e-05 "
r1.963369246062830e-05 #
r-1.963371379515231e-05 $

#3150000000
r1.979074157184671e-05 "
r1.979074157184671e-05 #
r-1.979076339917668e-05 $

#3175000000
r1.994779019474814e-05 "
r1.994779019474814e-05 #
r-1.994781251881031e-05 $

#3200000000
r2.010483832545758e-05 "
r2.010483832545758e-05 #
r-2.010486115017817e-05 $

#3225000000
r2.026188596010001e-05 "
r2.026188596010001e-05 #
r-2.026190928940524e-05 $

#3250000000
r2.041893309480045e-05 "
r2.041893309480045e-05 #
r-2.041895693261651e-05 $

#3275000000
r2.057597972568392e-05 "
r2.057597972568392e-05 #
r-2.057600407593698e-05 $

#3300000000
r2.073302584887543e-05 "
r2.073302584887543e-05 #
r-2.073305071549168e-05 $

#3325000000
r2.089007146050004e-05 "
r2.089007146050004e-05 #
r-2.089009684740563e-05 $

#3350000000
r2.104711655668279e-05 "
r2.104711655668279e-05 #
r-2.104714246780387e-05 $

#3375000000
r2.120416113354876e-05 "
r2.120416113354876e-05 #
r-2.120418757281147e-05 $

#3400000000
r2.136120518722302e-05 "
r2.136120518722302e-05 #
r-2.136123215855348e-05 $

#3425000000
r2.151824871383068e-05 "
r2.151824871383068e-05 #
r-2.151827622115499e-05 $

#3450000000
r2.167529170949683e-05 "
r2.167529170949683e-05 #
r-2.167531975674110e-05 $

#3475000000
r2.183233417034659e-05 "
r2.183233417034659e-05 #
r-2.183236276143689e-05 $

#3500000000
r2.198937609250511e-05 "
r2.198937609250511e-05 #
r-2.198940523136751e-05 $

#3525000000
r2.214641747209751e-05 "
r2.214641747209751e-05 #
r-2.214644716265806e-05 $

#3550000000
r2.230345830524897e-05 "
r2.230345830524897e-05 #
r-2.230348855143372e-05 $

#3575000000
r2.246049858808466e-05 "
r2.246049858808466e-05 #
r-2.246052939381963e-05 $

#3600000000
r2.261753831672975e-05 "
r2.261753831672975e-05 #
r-2.261756968594097e-05 $

#3625000000
r2.277457748730946e-05 "
r2.277457748730946e-05 #
r-2.277460942392291e-05 $

#3650000000
r2.293161609594900e-05 "
r2.293161609594900e-05 #
r-2.293164860389067e-05 $

#3675000000
r2.308865413877359e-05 "
r2.308865413877359e-05 #
r-2.308868722196946e-05 $

#3700000000
r2.324569161190847e-05 "
r2.324569161190847e-05 #
r-2.324572527428450e-05 $

#3725000000
r2.340272851147890e-05 "
r2.340272851147890e-05 #
r-2.340276275696103e-05 $

#3750000000
r2.355976483361015e-05 "
r2.355976483361015e-05 #
r-2.355979966612431e-05 $

#3775000000
r2.371680057442751e-05 "
r2.371680057442751e-05 #
r-2.371683599789961e-05 $

#3800000000
r2.387383573005627e-05 "
r2.387383573005627e-05 #
r-2.387387174841222e-05 $

#3825000000
r2.403087029662175e-05 "
r2.403087029662175e-05 #
r-2.403090691378744e-05 $

#3850000000
r2.418790427024927e-05 "
r2.418790427024927e-05 #
r-2.418794149015056e-05 $

#3875000000
r2.434493764706417e-05 "
r2.434493764706417e-05 #
r-2.434497547362692e-05 $

#3900000000
r2.450197042319182e-05 "
r2.450197042319182e-05 #
r-2.450200886034187e-05 $

#3925000000
r2.465900259475758e-05 "
r2.465900259475758e-05 #
r-2.465904164642076e-05 $

#3950000000
r2.481603415788684e-05 "
r2.481603415788684e-05 #
r-2.481607382798897e-05 $

#3975000000
r2.497306510870500e-05 "
r2.497306510870500e-05 #
r-2.497310540117187e-05 $

#4000000000
1!
r2.513009544333748e-05 "
r2.513009544333748e-05 #
r-2.513013636209487e-05 $

#4025000000
r2.528712515790971e-05 "
r2.528712515790971e-05 #
r-2.528716670688339e-05 $

#4050000000
r2.544415424854713e-05 "
r2.544415424854713e-05 #
r-2.544419643166285e-05 $

#4075000000
r2.560118271137522e-05 "
r2.560118271137522e-05 #
r-2.560122553255871e-05 $

#4100000000
r2.575821054251944e-05 "
r2.575821054251944e-05 #
r-2.575825400569643e-05 $

#4125000000
r2.591523773810530e-05 "
r2.591523773810530e-05 #
r-2.591528184720148e-05 $

#4150000000
r2.607226429425829e-05 "
r2.607226429425829e-05 #
r-2.607230905319936e-05 $

#4175000000
r2.622929020710395e-05 "
r2.622929020710395e-05 #
r-2.622933561981558e-05 $

#4200000000
r2.638631547276782e-05 "
r2.638631547276782e-05 #
r-2.638636154317566e-05 $

#4225000000
r2.654334008737544e-05 "
r2.654334008737544e-05 #
r-2.654338681940514e-05 $

#4250000000
r2.670036404705240e-05 "
r2.670036404705240e-05 #
r-2.670041144462959e-05 $

#4275000000
r2.685738734792430e-05 "
r2.685738734792430e-05 #
r-2.685743541497456e-05 $

#4300000000
r2.701440998611672e-05 "
r2.701440998611672e-05 #
r-2.701445872656566e-05 $

#4325000000
r2.717143195775529e-05 "
r2.717143195775529e-05 #
r-2.717148137552848e-05 $

#4350000000
r2.732845325896566e-05 "
r2.732845325896566e-05 #
r-2.732850335798866e-05 $

#4375000000
r2.748547388587346e-05 "
r2.748547388587346e-05 #
r-2.748552467007181e-05 $

#4400000000
r2.764249383460438e-05 "
r2.764249383460438e-05 #
r-2.764254530790361e-05 $

#4425000000
r2.779951310128411e-05 "
r2.779951310128411e-05 #
r-2.779956526760972e-05 $

#4450000000
r2.795653168203835e-05 "
r2.795653168203835e-05 #
r-2.795658454531583e-05 $

#4475000000
r2.811354957299282e-05 "
r2.811354957299282e-05 #
r-2.811360313714764e-05 $

#4500000000
r2.827056677027325e-05 "
r2.827056677027325e-05 #
r-2.827062103923088e-05 $

#4525000000
r2.842758327000542e-05 "
r2.842758327000542e-05 #
r-2.842763824769129e-05 $

#4550000000
r2.858459906831508e-05 "
r2.858459906831508e-05 #
r-2.858465475865461e-05 $

#4575000000
r2.874161416132803e-05 "
r2.874161416132803e-05 #
r-2.874167056824663e-05 $

#4600000000
r2.889862854517008e-05 "
r2.889862854517008e-05 #
r-2.889868567259313e-05 $

#4625000000
r2.905564221596706e-05 "
r2.905564221596706e-05 #
r-2.905570006781994e-05 $

#4650000000
r2.921265516984480e-05 "
r2.921265516984480e-05 #
r-2.921271375005284e-05 $

#4675000000
r2.936966740292916e-05 "
r2.936966740292916e-05 #
r-2.936972671541771e-05 $

#4700000000
r2.952667891134603e-05 "
r2.952667891134603e-05 #
r-2.952673896004041e-05 $

#4725000000
r2.968368969122130e-05 "
r2.968368969122130e-05 #
r-2.968375048004680e-05 $

#4750000000
r2.984069973868089e-05 "
r2.984069973868089e-05 #
r-2.984076127156278e-05 $

#4775000000
r2.999770904985072e-05 "
r2.999770904985072e-05 #
r-2.999777133071427e-05 $

#4800000000
r3.015471762085676e-05 "
r3.015471762085676e-05 #
r-3.015478065362720e-05 $

#4825000000
r3.031172544782495e-05 "
r3.031172544782495e-05 #
r-3.031178923642753e-05 $

#4850000000
r3.046873252688131e-05 "
r3.046873252688131e-05 #
r-3.046879707524121e-05 $

#4875000000
r3.062573885415182e-05 "
r3.062573885415182e-05 #
r-3.062580416619424e-05 $

#4900000000
r3.078274442576253e-05 "
r3.078274442576253e-05 #
r-3.078281050541262e-05 $

#4925000000
r3.093974923783944e-05 "
r3.093974923783944e-05 #
r-3.093981608902237e-05 $

#4950000000
r3.109675328650866e-05 "
r3.109675328650866e-05 #
r-3.109682091314955e-05 $

#4975000000
r3.125375656789624e-05 "
r3.125375656789624e-05 #
r-3.125382497392021e-05 $

#5000000000
1!
r3.141075907812830e-05 "
r3.141075907812830e-05 #
r-3.141082826746043e-05 $

#5025000000
r3.156776081333093e-05 "
r3.156776081333093e-05 #
r-3.156783078989629e-05 $

#5050000000
r3.172476176963030e-05 "
r3.172476176963030e-05 #
r-3.172483253735396e-05 $

#5075000000
r3.188176194315254e-05 "
r3.188176194315254e-05 #
r-3.188183350595953e-05 $

#5100000000
r3.203876133002383e-05 "
r3.203876133002383e-05 #
r-3.203883369183916e-05 $

#5125000000
r3.219575992637038e-05 "
r3.219575992637038e-05 #
r-3.219583309111904e-05 $

#5150000000
r3.235275772831840e-05 "
r3.235275772831840e-05 #
r-3.235283169992538e-05 $

#5175000000
r3.250975473199412e-05 "
r3.250975473199412e-05 #
r-3.250982951438436e-05 $

#5200000000
r3.266675093352379e-05 "
r3.266675093352379e-05 #
r-3.266682653062223e-05 $

#5225000000
r3.282374632903370e-05 "
r3.282374632903370e-05 #
r-3.282382274476525e-05 $

#5250000000
r3.298074091465013e-05 "
r3.298074091465013e-05 #
r-3.298081815293969e-05 $

#5275000000
r3.313773468649939e-05 "
r3.313773468649939e-05 #
r-3.313781275127185e-05 $

#5300000000
r3.329472764070782e-05 "
r3.329472764070782e-05 #
r-3.329480653588802e-05 $

#5325000000
r3.345171977340179e-05 "
r3.345171977340179e-05 #
r-3.345179950291456e-05 $

#5350000000
r3.360871108070766e-05 "
r3.360871108070766e-05 #
r-3.360879164847782e-05 $

#5375000000
r3.376570155875181e-05 "
r3.376570155875181e-05 #
r-3.376578296870415e-05 $

#5400000000
r3.392269120366068e-05 "
r3.392269120366068e-05 #
r-3.392277345971998e-05 $

#5425000000
r3.407968001156069e-05 "
r3.407968001156069e-05 #
r-3.407976311765169e-05 $

#5450000000
r3.423666797857831e-05 "
r3.423666797857831e-05 #
r-3.423675193862575e-05 $

#5475000000
r3.439365510084000e-05 "
r3.439365510084000e-05 #
r-3.439373991876858e-05 $

#5500000000
r3.455064137447228e-05 "
r3.455064137447228e-05 #
r-3.455072705420671e-05 $

#5525000000
r3.470762679560164e-05 "
r3.470762679560164e-05 #
r-3.470771334106657e-05 $

#5550000000
r3.486461136035464e-05 "
r3.486461136035464e-05 #
r-3.486469877547473e-05 $

#5575000000
r3.502159506485784e-05 "
r3.502159506485784e-05 #
r-3.502168335355770e-05 $

#5600000000
r3.517857790523783e-05 "
r3.517857790523783e-05 #
r-3.517866707144206e-05 $

#5625000000
r3.533555987762119e-05 "
r3.533555987762119e-05 #
r-3.533564992525440e-05 $

#5650000000
r3.549254097813456e-05 "
r3.549254097813456e-05 #
r-3.549263191112129e-05 $

#5675000000
r3.564952120290459e-05 "
r3.564952120290459e-05 #
r-3.564961302516937e-05 $

#5700000000
r3.580650054805795e-05 "
r3.580650054805795e-05 #
r-3.580659326352531e-05 $

#5725000000
r3.596347900972131e-05 "
r3.596347900972131e-05 #
r-3.596357262231575e-05 $

#5750000000
r3.612045658402140e-05 "
r3.612045658402140e-05 #
r-3.612055109766739e-05 $

#5775000000
r3.627743326708495e-05 "
r3.627743326708495e-05 #
r-3.627752868570693e-05 $

#5800000000
r3.643440905503871e-05 "
r3.643440905503871e-05 #
r-3.643450538256112e-05 $

#5825000000
r3.659138394400947e-05 "
r3.659138394400947e-05 #
r-3.659148118435671e-05 $

#5850000000
r3.674835793012402e-05 "
r3.674835793012402e-05 #
r-3.674845608722048e-05 $

#5875000000
r3.690533100950918e-05 "
r3.690533100950918e-05 #
r-3.690543008727921e-05 $

#5900000000
r3.706230317829180e-05 "
r3.706230317829180e-05 #
r-3.706240318065975e-05 $

#5925000000
r3.721927443259874e-05 "
r3.721927443259874e-05 #
r-3.721937536348893e-05 $

#5950000000
r3.737624476855690e-05 "
r3.737624476855690e-05 #
r-3.737634663189361e-05 $

#5975000000
r3.753321418229319e-05 "
r3.753321418229319e-05 #
r-3.753331698200069e-05 $

#6000000000
0!
r3.769018266993454e-05 "
r0.000000000000000 #
r-1.032688752556222e-10 $

#6025000000
r3.784715022760791e-05 "
r0.000000000000000 #
r-1.032688778373441e-10 $

#6050000000
r3.800411685144028e-05 "
r0.000000000000000 #
r-1.032688804190661e-10 $

#6075000000
r3.816108253755865e-05 "
r0.000000000000000 #
r-1.032688830007881e-10 $

#6100000000
r3.831804728209006e-05 "
r0.000000000000000 #
r-1.032688855825102e-10 $

#6125000000
r3.847501108116155e-05 "
r0.000000000000000 #
r-1.032688881642324e-10 $

#6150000000
r3.863197393090019e-05 "
r0.000000000000000 #
r-1.032688907459546e-10 $

#6175000000
r3.878893582743309e-05 "
r0.000000000000000 #
r-1.032688933276769e-10 $

#6200000000
r3.894589676688735e-05 "
r0.000000000000000 #
r-1.032688959093992e-10 $

#6225000000
r3.910285674539014e-05 "
r0.000000000000000 #
r-1.032688984911216e-10 $

#6250000000
r3.925981575906861e-05 "
r0.000000000000000 #
r-1.032689010728441e-10 $

#6275000000
r3.941677380404995e-05 "
r0.000000000000000 #
r-1.032689036545667e-10 $

#6300000000
r3.957373087646139e-05 "
r0.000000000000000 #
r-1.032689062362893e-10 $

#6325000000
r3.973068697243016e-05 "
r0.000000000000000 #
r-1.032689088180119e-10 $

#6350000000
r3.988764208808352e-05 "
r0.000000000000000 #
r-1.032689113997347e-10 $

#6375000000
r4.004459621954877e-05 "
r0.000000000000000 #
r-1.032689139814575e-10 $

#6400000000
r4.020154936295320e-05 "
r0.000000000000000 #
r-1.032689165631803e-10 $

#6425000000
r4.035850151442417e-05 "
r0.000000000000000 #
r-1.032689191449033e-10 $

#6450000000
r4.051545267008904e-05 "
r0.000000000000000 #
r-1.032689217266263e-10 $

#6475000000
r4.067240282607517e-05 "
r0.000000000000000 #
r-1.032689243083494e-10 $

#6500000000
r4.082935197851000e-05 "
r0.000000000000000 #
r-1.032689268900725e-10 $

#6525000000
r4.098630012352094e-05 "
r0.000000000000000 #
r-1.032689294717957e-10 $

#6550000000
r4.114324725723547e-05 "
r0.000000000000000 #
r-1.032689320535189e-10 $

#6575000000
r4.130019337578107e-05 "
r0.000000000000000 #
r-1.032689346352422e-10 $

#6600000000
r4.145713847528524e-05 "
r0.000000000000000 #
r-1.032689372169656e-10 $

#6625000000
r4.161408255187552e-05 "
r0.000000000000000 #
r-1.032689397986891e-10 $

#6650000000
r4.177102560167948e-05 "
r0.000000000000000 #
r-1.032689423804126e-10 $

#6675000000
r4.192796762082469e-05 "
r0.000000000000000 #
r-1.032689449621362e-10 $

#6700000000
r4.208490860543876e-05 "
r0.000000000000000 #
r-1.032689475438598e-10 $

#6725000000
r4.224184855164936e-05 "
r0.000000000000000 #
r-1.032689501255835e-10 $

#6750000000
r4.239878745558410e-05 "
r0.000000000000000 #
r-1.032689527073073e-10 $

#6775000000
r4.255572531337071e-05 "
r0.000000000000000 #
r-1.032689552890312e-10 $

#6800000000
r4.271266212113688e-05 "
r0.000000000000000 #
r-1.032689578707551e-10 $

#6825000000
r4.286959787501035e-05 "
r0.000000000000000 #
r-1.032689604524790e-10 $

#6850000000
r4.302653257111891e-05 "
r0.000000000000000 #
r-1.032689630342031e-10 $

#6875000000
r4.318346620559032e-05 "
r0.000000000000000 #
r-1.032689656159272e-10 $

#6900000000
r4.334039877455242e-05 "
r0.000000000000000 #
r-1.032689681976513e-10 $

#6925000000
r4.349733027413303e-05 "
r0.000000000000000 #
r-1.032689707793755e-10 $

#6950000000
r4.365426070046006e-05 "
r0.000000000000000 #
r-1.032689733610998e-10 $

#6975000000
r4.381119004966137e-05 "
r0.000000000000000 #
r-1.032689759428242e-10 $

#7000000000
0!
r4.396811831786491e-05 "
r0.000000000000000 #
r-1.032689785245486e-10 $

#7025000000
r4.412504550119860e-05 "
r0.000000000000000 #
r-1.032689811062731e-10 $

#7050000000
r4.428197159579043e-05 "
r0.000000000000000 #
r-1.032689836879977e-10 $

#7075000000
r4.443889659776843e-05 "
r0.000000000000000 #
r-1.032689862697223e-10 $

#7100000000
r4.459582050326059e-05 "
r0.000000000000000 #
r-1.032689888514469e-10 $

#7125000000
r4.475274330839499e-05 "
r0.000000000000000 #
r-1.032689914331717e-10 $

#7150000000
r4.490966500929972e-05 "
r0.000000000000000 #
r-1.032689940148965e-10 $

#7175000000
r4.506658560210289e-05 "
r0.000000000000000 #
r-1.032689965966214e-10 $

#7200000000
r4.522350508293261e-05 "
r0.000000000000000 #
r-1.032689991783463e-10 $

#7225000000
r4.538042344791708e-05 "
r0.000000000000000 #
r-1.032690017600713e-10 $

#7250000000
r4.553734069318450e-05 "
r0.000000000000000 #
r-1.032690043417964e-10 $

#7275000000
r4.569425681486306e-05 "
r0.000000000000000 #
r-1.032690069235215e-10 $

#7300000000
r4.585117180908103e-05 "
r0.000000000000000 #
r-1.032690095052467e-10 $

#7325000000
r4.600808567196668e-05 "
r0.000000000000000 #
r-1.032690120869720e-10 $

#7350000000
r4.616499839964834e-05 "
r0.000000000000000 #
r-1.032690146686973e-10 $

#7375000000
r4.632190998825430e-05 "
r0.000000000000000 #
r-1.032690172504227e-10 $

#7400000000
r4.647882043391295e-05 "
r0.000000000000000 #
r-1.032690198321482e-10 $

#7425000000
r4.663572973275270e-05 "
r0.000000000000000 #
r-1.032690224138737e-10 $

#7450000000
r4.679263788090192e-05 "
r0.000000000000000 #
r-1.032690249955993e-10 $

#7475000000
r4.694954487448908e-05 "
r0.000000000000000 #
r-1.032690275773250e-10 $

#7500000000
r4.710645070964266e-05 "
r0.000000000000000 #
r-1.032690301590507e-10 $

#7525000000
r4.726335538249117e-05 "
r0.000000000000000 #
r-1.032690327407765e-10 $

#7550000000
r4.742025888916311e-05 "
r0.000000000000000 #
r-1.032690353225023e-10 $

#7575000000
r4.757716122578708e-05 "
r0.000000000000000 #
r-1.032690379042282e-10 $

#7600000000
r4.773406238849165e-05 "
r0.000000000000000 #
r-1.032690404859542e-10 $

#7625000000
r4.789096237340544e-05 "
r0.000000000000000 #
r-1.032690430676803e-10 $

#7650000000
r4.804786117665709e-05 "
r0.000000000000000 #
r-1.032690456494063e-10 $

#7675000000
r4.820475879437530e-05 "
r0.000000000000000 #
r-1.032690482311325e-10 $

#7700000000
r4.836165522268876e-05 "
r0.000000000000000 #
r-1.032690508128588e-10 $

